…
## Usage

``` r
library(mixesdeebe)
```

Get the tracklist for a mix, as a tidy “tibble”.

``` r
get_tracklist_tidy("https://www.mixesdb.com/w/2020-06-15_-_Kush_Jones_-_Resident_Advisor_(RA.732)")
#> # A tibble: 27 x 8
#>    order timestamp artist   track     label cat_no title        url             
#>    <int> <chr>     <chr>    <chr>     <chr> <chr>  <chr>        <chr>           
#>  1     1 <NA>      RP Boo   Be Of It  <NA>  <NA>   2020-06-15 … https://www.mix…
#>  2     2 <NA>      DJ Love  Hot Pota… <NA>  <NA>   2020-06-15 … https://www.mix…
#>  3     3 <NA>      Kush Jo… Is It Po… <NA>  <NA>   2020-06-15 … https://www.mix…
#>  4     4 <NA>      DJ Clent Juke Bou… <NA>  <NA>   2020-06-15 … https://www.mix…
#>  5     5 <NA>      Cakedog  Strictly  <NA>  <NA>   2020-06-15 … https://www.mix…
#>  6     6 <NA>      Clear P… Jerry's … <NA>  <NA>   2020-06-15 … https://www.mix…
#>  7     7 <NA>      DJ Corey Fuck You  <NA>  <NA>   2020-06-15 … https://www.mix…
#>  8     8 <NA>      Kush Jo… Jiggiest  <NA>  <NA>   2020-06-15 … https://www.mix…
#>  9     9 <NA>      Kush Jo… Acidic    <NA>  <NA>   2020-06-15 … https://www.mix…
#> 10    10 <NA>      RayReck  Only One… <NA>  <NA>   2020-06-15 … https://www.mix…
#> # … with 17 more rows
```
…
